{
  "moduleContent": {
    "$edgeAgent": {
      "properties.desired": {
        "schemaVersion": "1.0",
        "runtime": {
          "type": "docker",
          "settings": {
            "minDockerVersion": "v1.25",
            "loggingOptions": "",
            "registryCredentials": {
              "registryName": {
                "username": "$CONTAINER_REGISTRY_USERNAME",
                "password": "$CONTAINER_REGISTRY_PASSWORD",
                "address": "$CONTAINER_REGISTRY_ADDRESS"
              }
            }
          }
        },
        "systemModules": {
          "edgeAgent": {
            "type": "docker",
            "settings": {
              "image": "mcr.microsoft.com/azureiotedge-agent:1.0",
              "createOptions": ""
            }
          },
          "edgeHub": {
            "type": "docker",
            "status": "running",
            "restartPolicy": "always",
            "settings": {
              "image": "mcr.microsoft.com/azureiotedge-hub:1.0",
              "createOptions": ""
            }
          }
        },
        "modules": {
          "camera-capture": {
            "version": "1.0",
            "type": "docker",
            "status": "running",
            "restartPolicy": "always",
            "settings": {
              "image": "${MODULES.CameraCapture.test-amd64}",
              "createOptions": "{\"Env\":[\"VIDEO_PATH=./AppleAndBanana.mp4\",\"IMAGE_PROCESSING_ENDPOINT=http://image-classifier-service:80/image\", \"VERBOSE=TRUE\", \"RESIZE_WIDTH=256\", \"RESIZE_HEIGHT=256\"]}"
            }
          },
          "image-classifier-service": {
            "version": "1.0",
            "type": "docker",
            "status": "running",
            "restartPolicy": "always",
            "settings": {
              "image": "${MODULES.ImageClassifierService.amd64}",
              "createOptions": ""
            }
          }
        }
      }
    },
    "$edgeHub": {
      "properties.desired": {
        "schemaVersion": "1.0",
        "routes": {
          "CameraCaptureToIoTHub": "FROM /messages/modules/camera-capture/outputs/output1 INTO $upstream"
        },
        "storeAndForwardConfiguration": {
          "timeToLiveSecs": 7200
        }
      }
    }
  }
}
