{
    "$schema-version": "0.0.1",
    "description": "",
    "image": {
        "repository": "$CONTAINER_REGISTRY_ADDRESS/predictionviewer",
        "tag": {
            "version": "0.0.1",
            "platforms": {
                "amd64": "./amd64.Dockerfile"
            }
        },
        "buildOptions": []
    },
    "language": "python"
}